{
  "name": "ASApp",
  "app_id": "",
  "proxies": [
    {
      "path": "/analize",
      "proxyUrl": "http://localhost:10000/analize"
    }
  ],
  "type": "ionic-angular",
  "integrations": {
    "cordova": {}
  }
}
